@startuml

' instanciacion
Main --> Procesamiento: Procesamiento()
Procesamiento --> CsvHandler: CsvHandler()

CsvHandler -> CsvHandler: open(archivo.csv)
CsvHandler -> CsvHandler: read_csv(archivo.csv)

Main -> Procesamiento: get_nro_nodos()
Main <- Procesamiento: nroNodos

Main --> Presentacion: Presentacion(nroNodos)
Presentacion -> Pyplot: figure()
Presentacion -> Pyplot: figure()
Presentacion -> Pyplot: figure()


' utilizacion de los datos

Main -> Procesamiento: temps_todos_nodos()
Main <- Procesamiento: datos

Main -> Presentacion: set_datos(datos)


Main -> Presentacion: poblarGraficos()

Presentacion -> Presentacion: box_plot()
Presentacion -> Presentacion: evolucion_cada_nodo()
Presentacion -> Presentacion: evolucion_promedio_todos()


Main -> Presentacion: mostrarGraficos()
Presentacion -> Pyplot: show()


@enduml